<?xml version="1.0" encoding="UTF-8" standalone="no"?>
<svg xmlns="http://www.w3.org/2000/svg"
     xmlns:inkscape="http://www.inkscape.org/namespaces/inkscape"
     width="32" height="32"
     inkscape:hotspot_x="4"
     inkscape:hotspot_y="4"
     style="fill:gray;stroke:black">

  <style>@import './cursors.css';</style>

  <defs>
  </defs>

  <!-- Cross (centered on hotspot) -->
  <use xlink:href="-common.svg#def-cross"/>


  <!-- Arrows -->
  <g id="cursor" style="fill:none">
    <g style="stroke:white;stroke-width:3px">
      <path d="m 15.5,22.5 h 7 v -7 m -12,-5 12,12"/>
    </g>
    <g style="stroke:black;stroke-width:1px">
      <path d="m 15.5,22.5 h 7 v -7 m -12,-5 12,12"/>
    </g>
  </g>
</svg>
